dump.vcd
$date
	2022-12-16 20:16
$end
$timescale 5555ps $end
$scope dumped_signals $end
$var wire 1 ! __main___basesoc_ibus_stb $end
$var wire 1 " __main___basesoc_ibus_cyc $end
$var wire 30 # __main___basesoc_ibus_adr $end
$var wire 1 $ __main___basesoc_ibus_we $end
$var wire 1 % __main___basesoc_ibus_ack $end
$var wire 4 & __main___basesoc_ibus_sel $end
$var wire 32 ' __main___basesoc_ibus_dat_w $end
$var wire 32 ( __main___basesoc_ibus_dat_r $end
$var wire 1 ) __main___basesoc_dbus_stb $end
$var wire 1 * __main___basesoc_dbus_cyc $end
$var wire 30 + __main___basesoc_dbus_adr $end
$var wire 1 , __main___basesoc_dbus_we $end
$var wire 1 - __main___basesoc_dbus_ack $end
$var wire 4 . __main___basesoc_dbus_sel $end
$var wire 32 / __main___basesoc_dbus_dat_w $end
$var wire 32 0 __main___basesoc_dbus_dat_r $end
$var wire 1 1 scope_clk $end
$var wire 1 2 scope_trig $end
$unscope  $end
$enddefinitions  $end
$dumpvars
bx !
bx "
bxxxxxxxxxxxxxxxxxxxxxxxxxxxxxx #
bx $
bx %
bxxxx &
bxxxxxxxxxxxxxxxxxxxxxxxxxxxxxxxx '
bxxxxxxxxxxxxxxxxxxxxxxxxxxxxxxxx (
bx )
bx *
bxxxxxxxxxxxxxxxxxxxxxxxxxxxxxx +
bx ,
bx -
bxxxx .
bxxxxxxxxxxxxxxxxxxxxxxxxxxxxxxxx /
bxxxxxxxxxxxxxxxxxxxxxxxxxxxxxxxx 0
bx 1
bx 2
$end
#0
b0 !
b0 "
b000000000000000000110000010000 #
b0 $
b0 %
b1111 &
b00000000000000000000000000000000 '
b00000000000001110000100000010011 (
b0 )
b0 *
b000000000000000000000000000000 +
b0 ,
b0 -
b1111 .
b10010010100100101001001010010010 /
b00000000000001110000100000010011 0
b1 1
b0 2
#1
b0 1
#2
b00000000000000000000000000101010 /
b1 1
#3
b0 1
#4
b111111111111111111111111111100 +
b1 ,
b0001 .
b00000000000000000000000000010000 /
b1 1
#5
b0 1
#6
b000000000000000000000000000000 +
b1 1
#7
b0 1
#8
b000000001111000000000000000110 +
b00010000000100000001000000010000 /
b1 1
#9
b0 1
#10
b000100000000000000011111100100 +
b1100 .
b00000000000000000000000000000000 /
b1 1
#11
b0 1
#12
b000000000000000000000000000000 +
b0011 .
b1 1
#13
b0 1
#14
b000011110000000000000000100000 +
b0001 .
b1 1
#15
b0 1
#16
b000000000000000000000000000000 +
b00001111000000000000000010000000 /
b1 1
#17
b0 1
#18
b000011110000000000000000100000 +
b0 ,
b1111 .
b00000000000000000000000000000000 /
b1 1
#19
b0 1
#20
b000000000000000000000000000000 +
b1 ,
b0001 .
b1 1
#21
b0 1
#22
b0 ,
b1111 .
b00010000000000000001111011110000 /
b1 1
#23
b0 1
#24
b000100000000000000011111100100 +
b00000000000000000000000000000000 /
b1 1
#25
b0 1
#26
b1 1
#27
b0 1
#28
b1 1
#29
b0 1
#30
b1 1
#31
b0 1
#32
b000100000000000000011111100101 +
b00010100000101000001010000010100 /
b1 1
b1 2
#33
b0 1
#34
b000000000000000000110000010011 +
b1 ,
b0001 .
b00000000000000000101010011110100 /
b1 1
#35
b0 1
#36
b000000000000000000000000000000 +
b0 ,
b1111 .
b00000000000000000000000000000000 /
b1 1
#37
b0 1
#38
b000000000000000000000000000010 +
b1 ,
b0010 .
b00000000000000000000000000110000 /
b1 1
#39
b0 1
#40
b000000000000000000000000001011 +
b0 ,
b1111 .
b00101010001010100010101000101010 /
b1 1
#41
b0 1
#42
b00000000000000000000000000000000 /
b1 1
#43
b0 1
#44
b000000000000000000000000000010 +
b01100000011000000110000001100000 /
b1 1
#45
b0 1
#46
b000000000000000000000000000000 +
b10010011100100111001001110010011 /
b1 1
#47
b0 1
#48
b00000000000000000000000000101010 /
b1 1
#49
b0 1
#50
b111111111111111111111111111100 +
b1 ,
b0001 .
b00000000000000000000000000010000 /
b1 1
#51
b0 1
#52
b000000000000000000000000000000 +
b1 1
#53
b0 1
#54
b000011110000000000000000100100 +
b00010000000100000001000000010000 /
b1 1
#55
b0 1
#56
b000100000000000000011111100100 +
b1000 .
b00000000000000000000000000000000 /
b1 1
#57
b0 1
#58
b000000000000000000000000000000 +
b0011 .
b1 1
#59
b0 1
#60
b111100000000000000001000000000 +
b0001 .
b1 1
#61
b0 1
#62
b000000000000000000000000000000 +
b11110000000000000000100000000000 /
b1 1
#63
b0 1
#64
b111100000000000000001000000000 +
b0 ,
b1111 .
b00000000000000000000000000000000 /
b1 1
#65
b0 1
#66
b000000000000000000000000000000 +
b1 ,
b0001 .
b1 1
#67
b0 1
#68
b0 ,
b1111 .
b00010000000000000001111011110000 /
b1 1
#69
b0 1
#70
b000100000000000000011111100101 +
b00000000000000000000000000000000 /
b1 1
#71
b0 1
#72
b1 1
#73
b0 1
#74
b1 1
#75
b0 1
#76
b1 1
#77
b0 1
#78
b00010100000101000001010000010100 /
b1 1
#79
b0 1
#80
b000000000000000000110000010011 +
b1 ,
b0001 .
b00000000000000000101010011110100 /
b1 1
#81
b0 1
#82
b000000000000000000000000000000 +
b0 ,
b1111 .
b00000000000000000000000000000000 /
b1 1
#83
b0 1
#84
b000000000000000000000000001110 +
b1 ,
b0010 .
b1 1
#85
b0 1
#86
b111111111111111111111111111111 +
b0 ,
b1111 .
b00101010001010100010101000101010 /
b1 1
#87
b0 1
#88
b00000000000000000000000000000000 /
b1 1
#89
b0 1
#90
b111111111111111111111111110110 +
b01100000011000000110000001100000 /
b1 1
#91
b0 1
#92
b111111111111111111111111110100 +
b10010100100101001001010010010100 /
b1 1
#93
b0 1
#94
b000000000000000000000000110100 +
b00000000000000000000000000101010 /
b1 1
#95
b0 1
#96
b000000000000000000000000110000 +
b1 ,
b0001 .
b00000000000000000000000000010000 /
b1 1
#97
b0 1
#98
b1 !
b1 "
b000000000000000000110000011000 #
b000000000000000000000000000000 +
b1 1
#99
b0 1
#100
b1 %
b11111000000001100001101011100011 (
b111100000000000000001000000100 +
b00010000000100000001000000010000 /
b11111000000001100001101011100011 0
b1 1
#101
b0 1
#102
b000000000000000000110000011001 #
b0 %
b000100000000000000011111100101 +
b0011 .
b00000000000000000000000000000000 /
b1 1
#103
b0 1
#104
b1 %
b00000000101000000000100010010011 (
b000100000000000000011111001010 +
b0 ,
b1111 .
b00000000000000000101010100100000 /
b00000000101000000000100010010011 0
b1 1
#105
b0 1
#106
b000000000000000000110000011010 #
b0 %
b00010000000000000000000101101000 /
b1 1
#107
b0 1
#108
b1 %
b11111000110111111111000001101111 (
b000100000000000000011111001001 +
b11111000110111111111000001101111 0
b1 1
#109
b0 1
#110
b000000000000000000110000011011 #
b0 %
b000100000000000000011111001010 +
b00000000000000000101010100100000 /
b1 1
#111
b0 1
#112
b1 %
b00000000000101101111011110010011 (
b00000000000101101111011110010011 0
b1 1
#113
b0 1
#114
b000000000000000000110000011100 #
b0 %
b1 1
#115
b0 1
#116
b1 %
b00000000000001111000010001100011 (
b00000000000001111000010001100011 0
b1 1
#117
b0 1
#118
b000000000000000000110000011101 #
b0 %
b1 1
#119
b0 1
#120
b1 %
b01000000101000000000010100110011 (
b01000000101000000000010100110011 0
b1 1
#121
b0 1
#122
b000000000000000000110000011110 #
b0 %
b1 1
#123
b0 1
#124
b1 %
b00000000001001101111011010010011 (
b00000000001001101111011010010011 0
b1 1
#125
b0 1
#126
b000000000000000000110000011111 #
b0 %
b1 1
#127
b0 1
#128
b1 %
b11101110000001101000011011100011 (
b000000000000000000000000000000 +
b00000000000000000000101000010100 /
b11101110000001101000011011100011 0
b1 1
#129
b0 1
#130
b0 !
b0 "
b000000000000000000110000011000 #
b0 %
b1 1
#131
b0 1
#132
b11111000000001100001101011100011 (
b11111000000001100001101011100011 0
b1 1
#133
b0 1
#134
b1 1
#135
b0 1
#136
b1 1
#137
b0 1
#138
b1 1
#139
b0 1
#140
b1 1
#141
b0 1
#142
b1 1
#143
b0 1
#144
b1 1
#145
b0 1
#146
b1 ,
b0001 .
b00000000000000000000000000000000 /
b1 1
#147
b0 1
#148
b000011111111111111111000000000 +
b1 1
#149
b0 1
#150
b000000000000000000000000000000 +
b0 ,
b1111 .
b00010000000000000001111011110000 /
b1 1
#151
b0 1
#152
b1 ,
b0001 .
b00000000000000000000000000000000 /
b1 1
#153
b0 1
#154
b0 ,
b1111 .
b00010000000000000001111011110000 /
b1 1
#155
b0 1
#156
b1 ,
b0001 .
b00000000000000000000000000000000 /
b1 1
#157
b0 1
#158
b000100000000000000011111000101 +
b0 ,
b1111 .
b1 1
#159
b0 1
#160
b000100000000000000011110111111 +
b1 ,
b0001 .
b1 1
#161
b0 1
#162
b1 )
b1 *
b1111 .
b00010000000000000001111110010100 /
b1 1
#163
b0 1
#164
b1 1
#165
b0 1
#166
b00010000000000000001111110010100 (
b1 -
b00010000000000000001111110010100 0
b1 1
#167
b0 1
#168
b0 )
b0 *
b111100000000000000001000000000 +
b0 ,
b0 -
b00000000000000000000000000000000 /
b1 1
#169
b0 1
#170
b00000000000000000000000000000000 (
b000000000000000000000000000001 +
b00000000000000000000000000000000 0
b1 1
#171
b0 1
#172
b00000000000000000000000000010011 (
b000100000000000000011110111111 +
b00000000000000000000000000111001 /
b00000000000000000000000000010011 0
b1 1
#173
b0 1
#174
b1 !
b1 "
b000000000000000000001010001000 #
b00010000000000000001111110010100 (
b111100000000000000001000000000 +
b00000000000000000000000000000000 /
b00010000000000000001111110010100 0
b1 1
#175
b0 1
#176
b00000000000000000000000000000000 (
b000000000000000000000000000000 +
b00000000000000000000000000000000 0
b1 1
#177
b0 1
#178
b1 %
b00000010000001111000100001100011 (
b000100000000000000011111100101 +
b00000010000001111000100001100011 0
b1 1
#179
b0 1
#180
b000000000000000000001010001001 #
b0 %
b000100000000000000011111010100 +
b1 1
#181
b0 1
#182
b1 %
b00000000000000000100010100110111 (
b000000000000000000000000011000 +
b00111001001110010011100100111001 /
b00000000000000000100010100110111 0
b1 1
#183
b0 1
#184
b000000000000000000001010001010 #
b0 %
b000000000000000000001010001001 +
b1 ,
b0001 .
b1 1
#185
b0 1
#186
b1 %
b11100101010001010000010100010011 (
b000100000000000000011111010100 +
b0 ,
b1111 .
b00000000000000000000000000000000 /
b11100101010001010000010100010011 0
b1 1
#187
b0 1
#188
b000000000000000000001010001011 #
b0 %
b1 1
#189
b0 1
#190
b1 %
b01000101010000000010000011101111 (
b01000101010000000010000011101111 0
b1 1
#191
b0 1
#192
b000000000000000000001010001100 #
b0 %
b1 1
#193
b0 1
#194
b1 %
b00000010110000010010000010000011 (
b000000000000000000000000000000 +
b1 ,
b0001 .
b00000010110000010010000010000011 0
b1 1
#195
b0 1
#196
b000000000000000000001010001101 #
b0 %
b1 1
#197
b0 1
#198
b1 %
b00000010100000010010010000000011 (
b00000010100000010010010000000011 0
b1 1
#199
b0 1
#200
b000000000000000000001010001110 #
b0 %
b1 1
#201
b0 1
#202
b1 %
b00000010010000010010010010000011 (
b00000010010000010010010010000011 0
b1 1
#203
b0 1
#204
b000000000000000000001010001111 #
b0 %
b1 1
#205
b0 1
#206
b1 %
b00000010000000010010100100000011 (
b00000010000000010010100100000011 0
b1 1
#207
b0 1
#208
b0 !
b0 "
b000000000000000000001010001000 #
b0 %
b1 1
#209
b0 1
#210
b00000010000001111000100001100011 (
b00000010000001111000100001100011 0
b1 1
#211
b0 1
#212
b1 1
#213
b0 1
#214
b1 1
#215
b0 1
#216
b1 1
#217
b0 1
#218
b1 1
#219
b0 1
#220
b1 1
#221
b0 1
#222
b1 1
#223
b0 1
#224
b1 !
b1 "
b000000000000000000001010010000 #
b000000000000000001000000000000 +
b1 1
#225
b0 1
#226
b1 %
b00000001110000010010100110000011 (
b000000000000000000111110010101 +
b0 ,
b1111 .
b01101000011010000110100001101000 /
b00000001110000010010100110000011 0
b1 1
#227
b0 1
#228
b000000000000000000001010010001 #
b0 %
b000000000000000000001010001100 +
b1 ,
b00010000000000000000000101101000 /
b1 1
#229
b0 1
#230
b1 %
b00000001100000010010101000000011 (
b000000000000000000000000000010 +
b0 ,
b00000000000000000000000000000000 /
b00000001100000010010101000000011 0
b1 1
#231
b0 1
#232
b000000000000000000001010010010 #
b0 %
b00111001001110010011100100111001 /
b1 1
#233
b0 1
#234
b1 %
b00000011000000010000000100010011 (
b000000000000000000001010010101 +
b1 ,
b0001 .
b00000011000000010000000100010011 0
b1 1
#235
b0 1
#236
b000000000000000000001010010011 #
b0 %
b000000000000000000000000000010 +
b0 ,
b1111 .
b00000000000000000000000000000000 /
b1 1
#237
b0 1
#238
b1 %
b00000000000000001000000001100111 (
b00000000000000001000000001100111 0
b1 1
#239
b0 1
#240
b000000000000000000001010010100 #
b0 %
b1 1
#241
b0 1
#242
b1 %
b00000000010001001010010100000011 (
b00000000010001001010010100000011 0
b1 1
#243
b0 1
#244
b000000000000000000001010010101 #
b0 %
b1 1
#245
b0 1
#246
b1 %
b00000000000000000000011000010011 (
b00000000000000000000011000010011 0
b1 1
#247
b0 1
#248
b000000000000000000001010010110 #
b0 %
b1 1
#249
b0 1
